# Sample from 26th round validation of Sample A, see
#
# https://its.cern.ch/jira/browse/ATR-27040
#
# AODs ttbar with pileup
valid1.601229.PhPy8EG_A14_ttbar_hdamp258p75_SingleLep.recon.AOD.e8453_e8455_s3873_s3874_r14383_tid32633998_00